基于R与RStudio的心理统计教学模式探索
…
###  示例一：基于tidyverse系列包的数据处理流程

#### 问题（2）：被试的地理来源分布（基于有效问卷）

有了`ip.location`这个数据框，后续的统计分析就简单了。

```r
ip.location %>% group_by(province) %>%  
  count %>% 
  arrange(desc(n))
```

```
## # A tibble: 26 × 2
##    province     n
##       <chr> <int>
## 1      天津    70
## 2      辽宁    43
## 3      山东    33
## 4      新疆    32
## 5      云南    29
## 6      北京    27
## 7      四川    26
## 8      重庆    26
## 9      河南    24
## 10   黑龙江    21
## # ... with 16 more rows
```
…
